{
    "version": 6,
    "cmakeMinimumRequired": {
      "major": 3,
      "minor": 20,
      "patch": 0
    },
    "configurePresets": [
      {
        "name": "mini gtest",
        "generator": "Ninja",
        "cacheVariables": {
          "CMAKE_BUILD_TYPE": "Debug"
        },
        "environment": {
          "CMAKE_CXX_COMPILER_LAUNCHER": "ccache",
          "CMAKE_EXPORT_COMPILE_COMMANDS": "ON"
        }
      }
    ]
  }